27 3x Graphics | Programming for Data Science in R
…
dplot3.box(x)

27.4.4 ggplot2

Again, ggplot requires an explicit categorical x-axis. In this case, this means we need to convert our dataset from wide to long.

Here we use tidyr’s pivot_longer() function, since it is part of the same cult known as the tidyverse. You can instead use the builtin reshape() function or any wide-to-long operation of your choosing, e.g. data.table’s melt().

library(tidyr)
x.long <- pivot_longer(x, 1:4, 
                       names_to = "Fruit", 
                       values_to = "Feature")
x.long

# A tibble: 800 × 2
   Fruit     Feature
   <chr>       <dbl>
 1 mango      0.739 
 2 banana     0.721 
 3 tangerine -1.26  
 4 sugar     -0.0187
 5 mango     -0.515 
 6 banana    -0.395 
 7 tangerine  0.258 
 8 sugar     -0.0301
 9 mango     -1.64  
10 banana     0.983 
# … with 790 more rows
…
