Chapter 22 3x Graphics | Programming for Data Science in R
…
22.8.3 dplot3

dplot3.box(x)

22.8.4 ggplot2

Again, ggplot requires an explicit categorical x-axis, which is this case means a conversion from wide to long dataset:

library(tidyr)
(x.long <- pivot_longer(x, 1:4, names_to = "Fruit", values_to = "Feature"))

# A tibble: 800 x 2
   Fruit     Feature
   <chr>       <dbl>
 1 mango      0.739 
 2 banana     0.721 
 3 tangerine -1.26  
 4 sugar     -0.0187
 5 mango     -0.515 
 6 banana    -0.395 
 7 tangerine  0.258 
 8 sugar     -0.0301
 9 mango     -1.64  
10 banana     0.983 
# … with 790 more rows
…
