PDSR - 32 Introduction to dplyr
…
The following objects are masked from 'package:stats':

    filter, lag

The following objects are masked from 'package:base':

    intersect, setdiff, setequal, union

iris |> as_tibble() -> iris

32.1 Filter

iris |> filter(Species == "setosa")

# A tibble: 50 × 5
   Sepal.Length Sepal.Width Petal.Length Petal.Width Species
          <dbl>       <dbl>        <dbl>       <dbl> <fct>  
 1          5.1         3.5          1.4         0.2 setosa 
 2          4.9         3            1.4         0.2 setosa 
 3          4.7         3.2          1.3         0.2 setosa 
 4          4.6         3.1          1.5         0.2 setosa 
 5          5           3.6          1.4         0.2 setosa 
 6          5.4         3.9          1.7         0.4 setosa 
 7          4.6         3.4          1.4         0.3 setosa 
 8          5           3.4          1.5         0.2 setosa 
 9          4.4         2.9          1.4         0.2 setosa 
10          4.9         3.1          1.5         0.1 setosa 
# … with 40 more rows

32.2 Select

iris |> select("Sepal.Length")

# A tibble: 150 × 1
   Sepal.Length
          <dbl>
 1          5.1
 2          4.9
 3          4.7
 4          4.6
 5          5  
 6          5.4
 7          4.6
 8          5  
 9          4.4
10          4.9
# … with 140 more rows

32.3 Mutate

iris |> mutate(Sepal_minus_Petal_length = Sepal.Length - Petal.Length)

# A tibble: 150 × 6
   Sepal.Length Sepal.Width Petal.Length Petal.Width Species Sepal_minus_Petal…¹
          <dbl>       <dbl>        <dbl>       <dbl> <fct>                 <dbl>
 1          5.1         3.5          1.4         0.2 setosa                  3.7
 2          4.9         3            1.4         0.2 setosa                  3.5
 3          4.7         3.2          1.3         0.2 setosa                  3.4
 4          4.6         3.1          1.5         0.2 setosa                  3.1
 5          5           3.6          1.4         0.2 setosa                  3.6
 6          5.4         3.9          1.7         0.4 setosa                  3.7
 7          4.6         3.4          1.4         0.3 setosa                  3.2
 8          5           3.4          1.5         0.2 setosa                  3.5
 9          4.4         2.9          1.4         0.2 setosa                  3  
10          4.9         3.1          1.5         0.1 setosa                  3.4
# … with 140 more rows, and abbreviated variable name ¹​Sepal_minus_Petal_length

32.3.1 Grouped

iris |> 
  group_by(Species) |> 
  mutate(Sepal.Length_minus_mean = Sepal.Length - mean(Sepal.Length))

# A tibble: 150 × 6
# Groups:   Species [3]
   Sepal.Length Sepal.Width Petal.Length Petal.Width Species Sepal.Length_minu…¹
          <dbl>       <dbl>        <dbl>       <dbl> <fct>                 <dbl>
 1          5.1         3.5          1.4         0.2 setosa              0.0940 
 2          4.9         3            1.4         0.2 setosa             -0.106  
 3          4.7         3.2          1.3         0.2 setosa             -0.306  
 4          4.6         3.1          1.5         0.2 setosa             -0.406  
 5          5           3.6          1.4         0.2 setosa             -0.00600
 6          5.4         3.9          1.7         0.4 setosa              0.394  
 7          4.6         3.4          1.4         0.3 setosa             -0.406  
 8          5           3.4          1.5         0.2 setosa             -0.00600
 9          4.4         2.9          1.4         0.2 setosa             -0.606  
10          4.9         3.1          1.5         0.1 setosa             -0.106  
# … with 140 more rows, and abbreviated variable name ¹​Sepal.Length_minus_mean
…
# A tibble: 3 × 3
  Species    Sepal.Length Petal.Length
  <fct>             <dbl>        <dbl>
1 setosa             5.01         1.46
2 versicolor         5.94         4.26
3 virginica          6.59         5.55

32.5 Arrange

iris |> arrange(Sepal.Length)

# A tibble: 150 × 5
   Sepal.Length Sepal.Width Petal.Length Petal.Width Species
          <dbl>       <dbl>        <dbl>       <dbl> <fct>  
 1          4.3         3            1.1         0.1 setosa 
 2          4.4         2.9          1.4         0.2 setosa 
 3          4.4         3            1.3         0.2 setosa 
 4          4.4         3.2          1.3         0.2 setosa 
 5          4.5         2.3          1.3         0.3 setosa 
 6          4.6         3.1          1.5         0.2 setosa 
 7          4.6         3.4          1.4         0.3 setosa 
 8          4.6         3.6          1           0.2 setosa 
 9          4.6         3.2          1.4         0.2 setosa 
10          4.7         3.2          1.3         0.2 setosa 
# … with 140 more rows

32.5.1 Grouped

iris |> 
  group_by(Species) |> 
  arrange(Sepal.Length)

# A tibble: 150 × 5
# Groups:   Species [3]
   Sepal.Length Sepal.Width Petal.Length Petal.Width Species
          <dbl>       <dbl>        <dbl>       <dbl> <fct>  
 1          4.3         3            1.1         0.1 setosa 
 2          4.4         2.9          1.4         0.2 setosa 
 3          4.4         3            1.3         0.2 setosa 
 4          4.4         3.2          1.3         0.2 setosa 
 5          4.5         2.3          1.3         0.3 setosa 
 6          4.6         3.1          1.5         0.2 setosa 
 7          4.6         3.4          1.4         0.3 setosa 
 8          4.6         3.6          1           0.2 setosa 
 9          4.6         3.2          1.4         0.2 setosa 
10          4.7         3.2          1.3         0.2 setosa 
# … with 140 more rows
…
