40 Introduction to dplyr – PDSR
…
Note

dplyr and the tidyverse in general operate on data.frames and tibbles, which can be used as a drop-in replacement for data.frames, and heavily promote the use of the pipe operator |>.

40.1 Filter

Single condition

dat |> 
    filter(age > 60)

# A tibble: 137 × 13
     age anaemia creatinine_phosphokinase diabetes ejection_fraction
   <dbl> <fct>                      <dbl> <fct>                <dbl>
 1    75 0                            582 0                       20
 2    65 0                            146 0                       20
 3    65 1                            160 1                       20
 4    90 1                             47 0                       40
 5    75 1                            246 0                       15
 6    65 0                            157 0                       65
 7    80 1                            123 0                       35
 8    75 1                             81 0                       38
 9    62 0                            231 0                       25
10    82 1                            379 0                       50
# ℹ 127 more rows
# ℹ 8 more variables: high_blood_pressure <fct>, platelets <dbl>,
#   serum_creatinine <dbl>, serum_sodium <dbl>, sex <fct>, smoking <fct>,
#   time <dbl>, DEATH_EVENT <fct>

Multiple conditions

dat |> 
    filter(age > 60, anaemia == "1")

# A tibble: 61 × 13
     age anaemia creatinine_phosphokinase diabetes ejection_fraction
   <dbl> <fct>                      <dbl> <fct>                <dbl>
 1    65 1                            160 1                       20
 2    90 1                             47 0                       40
 3    75 1                            246 0                       15
 4    80 1                            123 0                       35
 5    75 1                             81 0                       38
 6    82 1                            379 0                       50
 7    87 1                            149 0                       38
 8    70 1                            125 0                       25
 9    65 1                             52 0                       25
10    65 1                            128 1                       30
# ℹ 51 more rows
# ℹ 8 more variables: high_blood_pressure <fct>, platelets <dbl>,
#   serum_creatinine <dbl>, serum_sodium <dbl>, sex <fct>, smoking <fct>,
#   time <dbl>, DEATH_EVENT <fct>

40.2 Select

Columns can be specified by name, index, or pattern-matching.

40.2.1 By column name

dat |> 
    select("age", "diabetes", "ejection_fraction")

# A tibble: 299 × 3
     age diabetes ejection_fraction
   <dbl> <fct>                <dbl>
 1    75 0                       20
 2    55 0                       38
 3    65 0                       20
 4    50 0                       20
 5    65 1                       20
 6    90 0                       40
 7    75 0                       15
 8    60 1                       60
 9    65 0                       65
10    80 0                       35
# ℹ 289 more rows

40.2.2 By integer column index

dat |> 
    select(c(7, 9))

# A tibble: 299 × 2
   platelets serum_sodium
       <dbl>        <dbl>
 1   265000           130
 2   263358.          136
 3   162000           129
 4   210000           137
 5   327000           116
 6   204000           132
 7   127000           137
 8   454000           131
 9   263358.          138
10   388000           133
# ℹ 289 more rows

dat |> 
    select(7:9)

# A tibble: 299 × 3
   platelets serum_creatinine serum_sodium
       <dbl>            <dbl>        <dbl>
 1   265000               1.9          130
 2   263358.              1.1          136
 3   162000               1.3          129
 4   210000               1.9          137
 5   327000               2.7          116
 6   204000               2.1          132
 7   127000               1.2          137
 8   454000               1.1          131
 9   263358.              1.5          138
10   388000               9.4          133
# ℹ 289 more rows

40.2.3 By character name range

For example, select all columns between platelets and serum_sodium in the order they appear in the data.frame/tibble:

dat |> 
    select(platelets:serum_sodium)

# A tibble: 299 × 3
   platelets serum_creatinine serum_sodium
       <dbl>            <dbl>        <dbl>
 1   265000               1.9          130
 2   263358.              1.1          136
 3   162000               1.3          129
 4   210000               1.9          137
 5   327000               2.7          116
 6   204000               2.1          132
 7   127000               1.2          137
 8   454000               1.1          131
 9   263358.              1.5          138
10   388000               9.4          133
# ℹ 289 more rows

40.2.4 Pattern-matching

dat |> 
    select(starts_with("serum_"))

# A tibble: 299 × 2
   serum_creatinine serum_sodium
              <dbl>        <dbl>
 1              1.9          130
 2              1.1          136
 3              1.3          129
 4              1.9          137
 5              2.7          116
 6              2.1          132
 7              1.2          137
 8              1.1          131
 9              1.5          138
10              9.4          133
# ℹ 289 more rows

dat |> 
    select(ends_with("fraction"))

# A tibble: 299 × 1
   ejection_fraction
               <dbl>
 1                20
 2                38
 3                20
 4                20
 5                20
 6                40
 7                15
 8                60
 9                65
10                35
# ℹ 289 more rows
…
40.4 Arrange

arrange() sorts a data.frame/tibble, i.e. reorders the rows/cases of a dataset.

dat |> 
    select(age, sex, serum_sodium) |> 
    arrange(age)

# A tibble: 299 × 3
     age sex   serum_sodium
   <dbl> <fct>        <dbl>
 1    40 1              136
 2    40 0              140
 3    40 0              141
 4    40 1              137
 5    40 1              136
 6    40 1              142
 7    40 1              132
 8    41 1              140
 9    42 0              136
10    42 1              140
# ℹ 289 more rows

40.4.1 Grouped

dat |> 
    select(age, sex, serum_sodium) |> 
    group_by(sex) |> 
    arrange(age)

# A tibble: 299 × 3
# Groups:   sex [2]
     age sex   serum_sodium
   <dbl> <fct>        <dbl>
 1    40 1              136
 2    40 0              140
 3    40 0              141
 4    40 1              137
 5    40 1              136
 6    40 1              142
 7    40 1              132
 8    41 1              140
 9    42 0              136
10    42 1              140
# ℹ 289 more rows
…
dat <- dat |> 
    group_by(sex) |> 
    mutate(demeaned_sodium_bysex = serum_sodium - mean(serum_sodium)) |> 
    ungroup()

Important

Note that ungroup() is required to return the data.frame/tibble to its original ungrouped state. If you don’t do this, all subsequent operations will be performed on the same grouping.

Inspect the new column:

dat |> 
    select(sex, serum_sodium, demeaned_sodium_bysex)

# A tibble: 299 × 3
   sex   serum_sodium demeaned_sodium_bysex
   <fct>        <dbl>                 <dbl>
 1 1              130                -6.54 
 2 1              136                -0.536
 3 1              129                -7.54 
 4 1              137                 0.464
 5 0              116               -20.8  
 6 1              132                -4.54 
 7 1              137                 0.464
 8 1              131                -5.54 
 9 0              138                 1.21 
10 1              133                -3.54 
# ℹ 289 more rows
…
40.6.5 Using anonymous predicate function with where()

It is often useful to be able to get the number of unique values per column, e.g. in order to identify which columns may need to be converted to factors. dplyr includes the function n_distinct() which counts the number of unique values of a vector. 

 The following example shows the syntax dplyr’s formula shorthand to build an anonymous function using n_distinct() in order to select columns with fewer than 10 unique values:

dat |> 
    select(where(~ n_distinct(.x) < 10))

# A tibble: 299 × 6
   anaemia diabetes high_blood_pressure sex   smoking DEATH_EVENT
   <fct>   <fct>    <fct>               <fct> <fct>   <fct>      
 1 0       0        1                   1     0       1          
 2 0       0        0                   1     0       1          
 3 0       0        0                   1     1       1          
 4 1       0        0                   1     0       1          
 5 1       1        0                   0     0       1          
 6 1       0        1                   1     1       1          
 7 1       0        0                   1     0       1          
 8 1       1        0                   1     1       1          
 9 0       0        0                   0     0       1          
10 1       0        1                   1     1       1          
# ℹ 289 more rows

which is equivalent to using the standard R anonymous function syntax:

dat |> 
    select(where(\(x) n_distinct(x) < 10))

# A tibble: 299 × 6
   anaemia diabetes high_blood_pressure sex   smoking DEATH_EVENT
   <fct>   <fct>    <fct>               <fct> <fct>   <fct>      
 1 0       0        1                   1     0       1          
 2 0       0        0                   1     0       1          
 3 0       0        0                   1     1       1          
 4 1       0        0                   1     0       1          
 5 1       1        0                   0     0       1          
 6 1       0        1                   1     1       1          
 7 1       0        0                   1     0       1          
 8 1       1        0                   1     1       1          
 9 0       0        0                   0     0       1          
10 1       0        1                   1     1       1          
# ℹ 289 more rows

n_distinct(x) is a more concise way of writing length(unique(x)):

dat |> 
    select(where(\(x) length(unique(x)) < 10))

# A tibble: 299 × 6
   anaemia diabetes high_blood_pressure sex   smoking DEATH_EVENT
   <fct>   <fct>    <fct>               <fct> <fct>   <fct>      
 1 0       0        1                   1     0       1          
 2 0       0        0                   1     0       1          
 3 0       0        0                   1     1       1          
 4 1       0        0                   1     0       1          
 5 1       1        0                   0     0       1          
 6 1       0        1                   1     1       1          
 7 1       0        0                   1     0       1          
 8 1       1        0                   1     1       1          
 9 0       0        0                   0     0       1          
10 1       0        1                   1     1       1          
# ℹ 289 more rows
…
